<?xml version="1.0" encoding="UTF-8"?>
<svg width="20px" height="20px" viewBox="0 0 20 20" version="1.1" xmlns="http://www.w3.org/2000/svg" xmlns:xlink="http://www.w3.org/1999/xlink">
    <title>none</title>
    <g id="正/页面-05/28" stroke="none" stroke-width="1" fill="none" fill-rule="evenodd">
        <g id="我的自选" transform="translate(-1523.000000, -300.000000)">
            <rect id="矩形" fill="#EDEDED" x="0" y="90" width="1920" height="1133"></rect>
            <rect id="矩形" fill="#FFFFFF" x="760" y="110" width="800" height="547"></rect>
            <g id="编组" transform="translate(1523.000000, 300.000000)" fill="#A9A9A9" fill-rule="nonzero">
                <path d="M9.697831,1 C4.89468544,1 1,4.89468544 1,9.697831 C1,14.5009766 4.89468544,18.395662 9.697831,18.395662 C14.5009766,18.395662 18.395662,14.5009766 18.395662,9.697831 C18.395662,4.89468544 14.5039748,1 9.697831,1 Z M9.697831,16.8635725 C5.74018298,16.8635725 2.53508772,13.655479 2.53508772,9.70082922 C2.53508772,5.7431812 5.7431812,2.53808594 9.697831,2.53808594 C13.655479,2.53808594 16.8605764,5.74617941 16.8605764,9.70082922 C16.8635725,13.655479 13.655479,16.8635725 9.697831,16.8635725 Z" id="形状"></path>
                <polygon id="路径" points="5.09256785 8.93028714 14.3030942 8.93028714 14.3030942 10.4653749 5.09256785 10.4653749"></polygon>
            </g>
        </g>
    </g>
</svg>