<?xml version="1.0" encoding="UTF-8"?>
<svg width="20px" height="20px" viewBox="0 0 20 20" version="1.1" xmlns="http://www.w3.org/2000/svg" xmlns:xlink="http://www.w3.org/1999/xlink">
    <!-- Generator: Sketch 56.3 (81716) - https://sketch.com -->
    <title>gongsi</title>
    <desc>Created with Sketch.</desc>
    <g id="正/页面-05/28" stroke="none" stroke-width="1" fill="none" fill-rule="evenodd">
        <g id="首页/简讯/单独页面" transform="translate(-658.000000, -346.000000)" fill="#999999" fill-rule="nonzero">
            <g id="编组-22" transform="translate(635.000000, 170.000000)">
                <g id="编组-20">
                    <g id="编组-14">
                        <g id="编组-26" transform="translate(23.000000, 176.000000)">
                            <g id="gongsi">
                                <path d="M12.2222222,4.44444444 L18.8888889,4.44444444 C19.5555556,4.44444444 20,4.88888889 20,5.55555556 L20,18.8888889 C20,19.5555556 19.5555556,20 18.8888889,20 L1.11111111,20 C0.444444444,20 0,19.5555556 0,18.8888889 L0,1.11111111 C0,0.444444444 0.444444444,0 1.11111111,0 L11.1111111,0 C11.7777778,0 12.2222222,0.444444444 12.2222222,1.11111111 L12.2222222,4.44444444 Z M12.2222222,6.66666667 L12.2222222,17.7777778 L17.7777778,17.7777778 L17.7777778,6.66666667 L12.2222222,6.66666667 Z M2.22222222,2.22222222 L2.22222222,17.7777778 L10,17.7777778 L10,2.22222222 L2.22222222,2.22222222 Z M5.55555556,4.44444444 L6.66666667,4.44444444 C7.33333333,4.44444444 7.77777778,4.88888889 7.77777778,5.55555556 C7.77777778,6.22222222 7.33333333,6.66666667 6.66666667,6.66666667 L5.55555556,6.66666667 C4.88888889,6.66666667 4.44444444,6.22222222 4.44444444,5.55555556 C4.44444444,4.88888889 4.88888889,4.44444444 5.55555556,4.44444444 Z M5.55555556,8.88888889 L6.66666667,8.88888889 C7.33333333,8.88888889 7.77777778,9.33333333 7.77777778,10 C7.77777778,10.6666667 7.33333333,11.1111111 6.66666667,11.1111111 L5.55555556,11.1111111 C4.88888889,11.1111111 4.44444444,10.6666667 4.44444444,10 C4.44444444,9.33333333 4.88888889,8.88888889 5.55555556,8.88888889 Z M5.55555556,13.3333333 L6.66666667,13.3333333 C7.33333333,13.3333333 7.77777778,13.7777778 7.77777778,14.4444444 C7.77777778,15.1111111 7.33333333,15.5555556 6.66666667,15.5555556 L5.55555556,15.5555556 C4.88888889,15.5555556 4.44444444,15.1111111 4.44444444,14.4444444 C4.44444444,13.7777778 4.88888889,13.3333333 5.55555556,13.3333333 Z M14.4444444,8.88888889 L15.5555556,8.88888889 C16.2222222,8.88888889 16.6666667,9.33333333 16.6666667,10 C16.6666667,10.6666667 16.2222222,11.1111111 15.5555556,11.1111111 L14.4444444,11.1111111 C13.7777778,11.1111111 13.3333333,10.6666667 13.3333333,10 C13.3333333,9.33333333 13.7777778,8.88888889 14.4444444,8.88888889 Z M14.4444444,13.3333333 L15.5555556,13.3333333 C16.2222222,13.3333333 16.6666667,13.7777778 16.6666667,14.4444444 C16.6666667,15.1111111 16.2222222,15.5555556 15.5555556,15.5555556 L14.4444444,15.5555556 C13.7777778,15.5555556 13.3333333,15.1111111 13.3333333,14.4444444 C13.3333333,13.7777778 13.7777778,13.3333333 14.4444444,13.3333333 Z" id="形状"></path>
                            </g>
                        </g>
                    </g>
                </g>
            </g>
        </g>
    </g>
</svg>