<?xml version="1.0" encoding="UTF-8"?>
<svg width="17px" height="18px" viewBox="0 0 17 18" version="1.1" xmlns="http://www.w3.org/2000/svg" xmlns:xlink="http://www.w3.org/1999/xlink">
    <title>back</title>
    <g id="正/页面-05/28" stroke="none" stroke-width="1" fill="none" fill-rule="evenodd" opacity="0.927804129">
        <g id="首页/简讯/写简讯" transform="translate(-1207.000000, -131.000000)" fill="#2F7354">
            <g id="编组-24" transform="translate(636.000000, 110.000000)">
                <g id="back" transform="translate(571.000000, 21.000000)">
                    <path d="M4.86672727,17.2768342 C4.36015343,17.2768342 4.3119083,16.865481 4.3119083,16.3569607 C4.3119083,15.8491966 4.36015343,15.4378434 4.86672727,15.4378434 L10.1857526,15.4378434 C14.1056692,15.4378434 15.1429395,12.207511 15.1429395,10.4895065 C15.1429395,8.2270639 14.2865885,5.52907089 10.1978139,5.52907089 L3.12990267,5.52907089 L5.53009778,7.93669694 C5.69895572,8.10607767 5.79544598,8.34805014 5.79544598,8.58964452 C5.79544598,8.83199507 5.69895572,9.07396754 5.53009778,9.24297018 C5.36123983,9.41235091 5.12001419,9.50951798 4.87878855,9.50951798 C4.62550163,9.50951798 4.39633727,9.41235091 4.22747933,9.24297018 L0.271378844,5.26290117 C-0.0904596147,4.89994247 -0.0904596147,4.31920855 0.271378844,3.95624985 L3.95006984,0.266169714 C4.11892779,0.0967889871 4.36015343,-2.18772369e-14 4.60137907,-2.18772369e-14 C4.85466599,-2.18772369e-14 5.08383034,0.0967889871 5.25268829,0.266169714 C5.61452675,0.629128416 5.61452675,1.20986234 5.25268829,1.57282104 L3.16608651,3.67798151 L10.2098752,3.67798151 C12.6944993,3.67798151 14.5398754,4.5006879 15.721881,6.10980481 C16.7712126,7.56163962 17,9.29174276 17,10.4895065 C17,13.2234173 15.1911846,17.2885547 10.1978139,17.2885547 L4.86672727,17.2885547 L4.86672727,17.2768342 Z" id="Fill-1"></path>
                </g>
            </g>
        </g>
    </g>
</svg>