<?xml version="1.0" encoding="UTF-8"?>
<svg width="17px" height="18px" viewBox="0 0 17 18" version="1.1" xmlns="http://www.w3.org/2000/svg" xmlns:xlink="http://www.w3.org/1999/xlink">
    <title>shouyiguize 2</title>
    <g id="正/页面-05/28" stroke="none" stroke-width="1" fill="none" fill-rule="evenodd">
        <g id="首页/深度分析" transform="translate(-1276.000000, -706.000000)" fill="#999999" fill-rule="nonzero" stroke="#999999" stroke-width="0.2">
            <g id="编组-8" transform="translate(1261.000000, 577.000000)">
                <g id="编组-25" transform="translate(16.000000, 130.000000)">
                    <g id="shouyiguize-2">
                        <g id="shouyiguize">
                            <g id="编组-23">
                                <path d="M0.50217662,10.6666667 C0.282748044,10.6666667 0.0633194674,10.516267 0.00846232763,10.2656008 C-0.0463948121,10.0149347 0.173033764,9.76426858 0.44731948,9.71413534 C5.87817673,8.86187047 10.7056054,5.50294424 13.229034,0.74028763 C13.2838911,0.589887943 13.3936054,0.439488272 13.4484626,0.289088585 C13.5581769,0.0384224514 13.8873197,-0.0618440116 14.1067483,0.0384224514 C14.381034,0.138688899 14.4907483,0.439488272 14.381034,0.640021182 C14.3261769,0.790420869 14.2164626,0.94082054 14.1616055,1.09122023 C11.4736054,6.10454297 6.37189102,9.66400212 0.611890899,10.6165334 C0.55703376,10.6666667 0.50217662,10.6666667 0.50217662,10.6666667 Z" id="路径"></path>
                                <path d="M14.4190402,3.2 C14.1662181,3.2 13.9133961,3.04311572 13.8501906,2.78164193 L13.2813411,0.585262093 C13.2181355,0.323788306 13.4077521,0.0623145184 13.7237796,0.0100197642 C14.0398071,-0.04227499 14.3558347,0.114609273 14.4190402,0.37608306 L14.9878897,2.62475767 C15.0510952,2.88623146 14.8614787,3.14770525 14.5454512,3.2 L14.4190402,3.2 Z" id="路径"></path>
                                <path d="M11.7558989,1.5782334 C11.5409186,1.5782334 11.3259383,1.42852648 11.2721932,1.22891725 C11.1647031,0.979405722 11.3259383,0.729894192 11.5946637,0.630089587 L13.7444668,0.0312619065 C14.0131921,-0.068542699 14.2819175,0.0811642093 14.3894077,0.330675739 C14.4968978,0.580187268 14.3356626,0.829698798 14.0669372,0.929503419 L11.9171342,1.5283311 C11.8633891,1.5283311 11.809644,1.5782334 11.7558989,1.5782334 Z M13.7444668,16 C13.4757414,16 13.2607611,15.8003908 13.2607611,15.5508792 L13.2607611,5.47061332 C13.2607611,5.22110179 13.4757414,5.02149256 13.7444668,5.02149256 C14.0131922,5.02149256 14.2281725,5.22110179 14.2281725,5.47061332 L14.2281725,15.5508792 C14.2281725,15.8003908 14.0131921,16 13.7444668,16 Z M9.49860573,16 C9.22988035,16 9.01490005,15.8003908 9.01490005,15.5508792 L9.01490005,9.41289553 C9.01490005,9.163384 9.22988035,8.96377478 9.49860573,8.96377478 C9.76733111,8.96377478 9.98231141,9.163384 9.98231143,9.41289553 L9.98231143,15.5508792 C10.0360565,15.8003908 9.8210762,16 9.49860573,16 Z M5.3064898,16 C5.03776442,16 4.8227841,15.8003908 4.8227841,15.5508792 L4.8227841,12.257327 C4.8227841,12.0078155 5.0377644,11.8082063 5.3064898,11.8082063 C5.57521519,11.8082063 5.79019548,12.0078155 5.79019548,12.257327 L5.79019548,15.5508792 C5.79019548,15.8003908 5.57521518,16 5.3064898,16 Z M1.06062876,16 C0.791903382,16 0.576923077,15.8003908 0.576923077,15.5508792 L0.576923077,13.4050801 C0.576923077,13.1555685 0.791903382,12.9559593 1.06062876,12.9559593 C1.32935414,12.9559593 1.54433446,13.1555685 1.54433446,13.4050801 L1.54433446,15.5508792 C1.54433446,15.8003908 1.32935415,16 1.06062876,16 Z" id="形状"></path>
                            </g>
                        </g>
                    </g>
                </g>
            </g>
        </g>
    </g>
</svg>